-- Merging decision tree log ---
manifest
ADDED from /Users/albertorusso/Documents/rtl-assignment/app/src/main/AndroidManifest.xml:18:1-42:12
INJECTED from /Users/albertorusso/Documents/rtl-assignment/app/src/main/AndroidManifest.xml:18:1-42:12
INJECTED from /Users/albertorusso/Documents/rtl-assignment/app/src/main/AndroidManifest.xml:18:1-42:12
INJECTED from /Users/albertorusso/Documents/rtl-assignment/app/src/main/AndroidManifest.xml:18:1-42:12
MERGED from [androidx.databinding:databinding-adapters:3.4.0] /Users/albertorusso/.gradle/caches/transforms-2/files-2.1/c0077edfcc4500e9dd25c481ab4a0232/AndroidManifest.xml:17:1-24:12
MERGED from [androidx.databinding:databinding-runtime:3.4.0] /Users/albertorusso/.gradle/caches/transforms-2/files-2.1/b532645c71f51ba421f929671daa1851/AndroidManifest.xml:17:1-24:12
MERGED from [android.arch.navigation:navigation-ui-ktx:1.0.0] /Users/albertorusso/.gradle/caches/transforms-2/files-2.1/4f3444f4bba8d3ef316429d50177b3f9/AndroidManifest.xml:17:1-22:12
MERGED from [android.arch.navigation:navigation-ui:1.0.0] /Users/albertorusso/.gradle/caches/transforms-2/files-2.1/5f95a8caec286889d3c9bd706ec1891a/AndroidManifest.xml:17:1-22:12
MERGED from [com.google.android.material:material:1.0.0] /Users/albertorusso/.gradle/caches/transforms-2/files-2.1/a2aafc73767c3f841f8c9ad28c8ce0f9/AndroidManifest.xml:17:1-24:12
MERGED from [androidx.appcompat:appcompat:1.0.2] /Users/albertorusso/.gradle/caches/transforms-2/files-2.1/e1bec6384090f101ff0a3e35c0f3f191/AndroidManifest.xml:17:1-22:12
MERGED from [androidx.legacy:legacy-support-v4:1.0.0] /Users/albertorusso/.gradle/caches/transforms-2/files-2.1/da10c4451210d1ffc2ec3e34691bce4c/AndroidManifest.xml:17:1-22:12
MERGED from [androidx.core:core-ktx:1.0.2] /Users/albertorusso/.gradle/caches/transforms-2/files-2.1/920c87602b523a09bd91360bd28588d9/AndroidManifest.xml:2:1-7:12
MERGED from [androidx.constraintlayout:constraintlayout:1.1.3] /Users/albertorusso/.gradle/caches/transforms-2/files-2.1/e7e4c4661ee18179af3fbb690bb871bb/AndroidManifest.xml:2:1-11:12
MERGED from [android.arch.navigation:navigation-fragment-ktx:1.0.0] /Users/albertorusso/.gradle/caches/transforms-2/files-2.1/1cd5a2a6f7f6b49dd00bda2ddf9ddea5/AndroidManifest.xml:17:1-22:12
MERGED from [androidx.lifecycle:lifecycle-extensions:2.2.0-alpha01] /Users/albertorusso/.gradle/caches/transforms-2/files-2.1/a20aa0043444fc0dfce31a67321e23f5/AndroidManifest.xml:17:1-25:12
MERGED from [com.jakewharton.timber:timber:4.7.1] /Users/albertorusso/.gradle/caches/transforms-2/files-2.1/67d90d7c4c4b5a87e7f80237654a3dac/AndroidManifest.xml:2:1-9:12
MERGED from [com.github.bumptech.glide:glide:4.8.0] /Users/albertorusso/.gradle/caches/transforms-2/files-2.1/b0b6a439e78849afdec5da2d927bafb7/AndroidManifest.xml:2:1-12:12
MERGED from [androidx.room:room-runtime:2.1.0-alpha06] /Users/albertorusso/.gradle/caches/transforms-2/files-2.1/ca577de8aeb8d441981b5b83d2eae471/AndroidManifest.xml:17:1-28:12
MERGED from [android.arch.navigation:navigation-fragment:1.0.0] /Users/albertorusso/.gradle/caches/transforms-2/files-2.1/104356b2589c7435c30d2f1d8281ff21/AndroidManifest.xml:17:1-22:12
MERGED from [androidx.fragment:fragment:1.0.0] /Users/albertorusso/.gradle/caches/transforms-2/files-2.1/28d7b5aca904b4ec2b55055ea37233d4/AndroidManifest.xml:17:1-22:12
MERGED from [androidx.vectordrawable:vectordrawable-animated:1.0.0] /Users/albertorusso/.gradle/caches/transforms-2/files-2.1/6f4a529746b0ef260f45466fcb6875a4/AndroidManifest.xml:17:1-22:12
MERGED from [androidx.recyclerview:recyclerview:1.0.0] /Users/albertorusso/.gradle/caches/transforms-2/files-2.1/b5e7d036a99d35beced368ad1a0adfce/AndroidManifest.xml:17:1-22:12
MERGED from [androidx.legacy:legacy-support-core-ui:1.0.0] /Users/albertorusso/.gradle/caches/transforms-2/files-2.1/46490fb18a0285bbddd541413e59dcde/AndroidManifest.xml:17:1-22:12
MERGED from [android.arch.navigation:navigation-runtime-ktx:1.0.0] /Users/albertorusso/.gradle/caches/transforms-2/files-2.1/c14fb9543293caeed3766a41c51d23db/AndroidManifest.xml:17:1-22:12
MERGED from [android.arch.navigation:navigation-runtime:1.0.0] /Users/albertorusso/.gradle/caches/transforms-2/files-2.1/2c4d69b3bcd6f25c2c8cfb0540e7b6dd/AndroidManifest.xml:17:1-22:12
MERGED from [androidx.legacy:legacy-support-core-utils:1.0.0] /Users/albertorusso/.gradle/caches/transforms-2/files-2.1/ac319da78e469daf546f0ca836c96b40/AndroidManifest.xml:17:1-22:12
MERGED from [androidx.vectordrawable:vectordrawable:1.0.1] /Users/albertorusso/.gradle/caches/transforms-2/files-2.1/daaeb3cff6030a1c91ce1aeb8be419c1/AndroidManifest.xml:17:1-22:12
MERGED from [androidx.media:media:1.0.0] /Users/albertorusso/.gradle/caches/transforms-2/files-2.1/5f18522568630c9aa6d860f7664699c0/AndroidManifest.xml:17:1-22:12
MERGED from [androidx.transition:transition:1.0.0] /Users/albertorusso/.gradle/caches/transforms-2/files-2.1/591d481cbb48df802e6d583e9f63b770/AndroidManifest.xml:17:1-22:12
MERGED from [androidx.loader:loader:1.0.0] /Users/albertorusso/.gradle/caches/transforms-2/files-2.1/bbbcacb731910f506c69ad48af0588aa/AndroidManifest.xml:17:1-22:12
MERGED from [androidx.viewpager:viewpager:1.0.0] /Users/albertorusso/.gradle/caches/transforms-2/files-2.1/2aa0cffc78f48c2569965fc8d49c6094/AndroidManifest.xml:17:1-22:12
MERGED from [androidx.coordinatorlayout:coordinatorlayout:1.0.0] /Users/albertorusso/.gradle/caches/transforms-2/files-2.1/ad964037248811225b2b9a64c4960e9b/AndroidManifest.xml:17:1-22:12
MERGED from [androidx.drawerlayout:drawerlayout:1.0.0] /Users/albertorusso/.gradle/caches/transforms-2/files-2.1/81b0ae0e3ded745529cdd796fd994093/AndroidManifest.xml:17:1-22:12
MERGED from [androidx.slidingpanelayout:slidingpanelayout:1.0.0] /Users/albertorusso/.gradle/caches/transforms-2/files-2.1/08cf24779c9ee7b7d68e08fbd918dbfc/AndroidManifest.xml:17:1-22:12
MERGED from [androidx.customview:customview:1.0.0] /Users/albertorusso/.gradle/caches/transforms-2/files-2.1/8eb97732585bf55306428930980f5a6b/AndroidManifest.xml:17:1-22:12
MERGED from [androidx.swiperefreshlayout:swiperefreshlayout:1.0.0] /Users/albertorusso/.gradle/caches/transforms-2/files-2.1/99caf28a6417beb9f548b0647459a6dc/AndroidManifest.xml:17:1-22:12
MERGED from [androidx.asynclayoutinflater:asynclayoutinflater:1.0.0] /Users/albertorusso/.gradle/caches/transforms-2/files-2.1/7a238cbc983ad6e90ea028206f73461b/AndroidManifest.xml:17:1-22:12
MERGED from [android.arch.navigation:navigation-common-ktx:1.0.0] /Users/albertorusso/.gradle/caches/transforms-2/files-2.1/6cc94e166a82877e99a2084c5ea37e90/AndroidManifest.xml:17:1-22:12
MERGED from [android.arch.navigation:navigation-common:1.0.0] /Users/albertorusso/.gradle/caches/transforms-2/files-2.1/087513137d20d15d7d1a27b960b13f21/AndroidManifest.xml:17:1-22:12
MERGED from [androidx.core:core:1.0.2] /Users/albertorusso/.gradle/caches/transforms-2/files-2.1/7357e8ab3d8fa5ec29db00526e95f769/AndroidManifest.xml:17:1-24:12
MERGED from [androidx.lifecycle:lifecycle-process:2.2.0-alpha01] /Users/albertorusso/.gradle/caches/transforms-2/files-2.1/9eb31e8b01e81b4bbd8da66c0915c5b0/AndroidManifest.xml:17:1-30:12
MERGED from [androidx.lifecycle:lifecycle-service:2.2.0-alpha01] /Users/albertorusso/.gradle/caches/transforms-2/files-2.1/0a235357dc57d8c84009ee59d6091cb1/AndroidManifest.xml:17:1-22:12
MERGED from [androidx.lifecycle:lifecycle-runtime:2.2.0-alpha01] /Users/albertorusso/.gradle/caches/transforms-2/files-2.1/8e1c308f1d09e8f5af57f77749866d55/AndroidManifest.xml:17:1-22:12
MERGED from [androidx.versionedparcelable:versionedparcelable:1.0.0] /Users/albertorusso/.gradle/caches/transforms-2/files-2.1/82d080fe89a3e5cb78697d95fd33dc7e/AndroidManifest.xml:17:1-25:12
MERGED from [androidx.cursoradapter:cursoradapter:1.0.0] /Users/albertorusso/.gradle/caches/transforms-2/files-2.1/990f7484a5fff02dab68aefd6919eaf1/AndroidManifest.xml:17:1-22:12
MERGED from [androidx.cardview:cardview:1.0.0] /Users/albertorusso/.gradle/caches/transforms-2/files-2.1/0d3c781c59c18f326b73821ce219ca3b/AndroidManifest.xml:17:1-22:12
MERGED from [androidx.lifecycle:lifecycle-livedata:2.2.0-alpha01] /Users/albertorusso/.gradle/caches/transforms-2/files-2.1/08eef8c7960978b28565b256b7ce0f08/AndroidManifest.xml:17:1-22:12
MERGED from [androidx.lifecycle:lifecycle-livedata-core:2.2.0-alpha01] /Users/albertorusso/.gradle/caches/transforms-2/files-2.1/0c8f4c515d2cfb0e6d3c8af6ff90af62/AndroidManifest.xml:17:1-22:12
MERGED from [androidx.arch.core:core-runtime:2.1.0-beta01] /Users/albertorusso/.gradle/caches/transforms-2/files-2.1/3df923c89633e55e50bb30f29ee3d93f/AndroidManifest.xml:17:1-22:12
MERGED from [androidx.lifecycle:lifecycle-viewmodel:2.2.0-alpha01] /Users/albertorusso/.gradle/caches/transforms-2/files-2.1/fd2e7be2131f8f993f7d6cd56e05748d/AndroidManifest.xml:17:1-22:12
MERGED from [com.github.bumptech.glide:gifdecoder:4.8.0] /Users/albertorusso/.gradle/caches/transforms-2/files-2.1/8538b6d5c9e36310b3787e1baae1b3c2/AndroidManifest.xml:2:1-11:12
MERGED from [androidx.sqlite:sqlite-framework:2.0.1] /Users/albertorusso/.gradle/caches/transforms-2/files-2.1/8248a3757d9ebca1d83c3e4ad6c8219f/AndroidManifest.xml:17:1-22:12
MERGED from [androidx.sqlite:sqlite:2.0.1] /Users/albertorusso/.gradle/caches/transforms-2/files-2.1/b0ecc9c21b67eb61da01e2df3d243d10/AndroidManifest.xml:17:1-22:12
MERGED from [androidx.documentfile:documentfile:1.0.0] /Users/albertorusso/.gradle/caches/transforms-2/files-2.1/55421b2dcb9b34ffbb3e6f4f9fcdc7af/AndroidManifest.xml:17:1-22:12
MERGED from [androidx.localbroadcastmanager:localbroadcastmanager:1.0.0] /Users/albertorusso/.gradle/caches/transforms-2/files-2.1/39972dc8f20e95feff4526ce8e226609/AndroidManifest.xml:17:1-22:12
MERGED from [androidx.print:print:1.0.0] /Users/albertorusso/.gradle/caches/transforms-2/files-2.1/de282367bbb01396923b23df1e1fc72a/AndroidManifest.xml:17:1-22:12
MERGED from [androidx.interpolator:interpolator:1.0.0] /Users/albertorusso/.gradle/caches/transforms-2/files-2.1/e631b91fc2941b4c985dca685d18605d/AndroidManifest.xml:17:1-22:12
INJECTED from /Users/albertorusso/Documents/rtl-assignment/app/src/main/AndroidManifest.xml:18:1-42:12
INJECTED from /Users/albertorusso/Documents/rtl-assignment/app/src/main/AndroidManifest.xml:18:1-42:12
INJECTED from /Users/albertorusso/Documents/rtl-assignment/app/src/main/AndroidManifest.xml:18:1-42:12
	package
		ADDED from /Users/albertorusso/Documents/rtl-assignment/app/src/main/AndroidManifest.xml:20:5-38
		INJECTED from /Users/albertorusso/Documents/rtl-assignment/app/src/main/AndroidManifest.xml
		INJECTED from /Users/albertorusso/Documents/rtl-assignment/app/src/main/AndroidManifest.xml
	android:versionName
		INJECTED from /Users/albertorusso/Documents/rtl-assignment/app/src/main/AndroidManifest.xml
		ADDED from /Users/albertorusso/Documents/rtl-assignment/app/src/main/AndroidManifest.xml:18:1-42:12
		INJECTED from /Users/albertorusso/Documents/rtl-assignment/app/src/main/AndroidManifest.xml
	xmlns:tools
		ADDED from /Users/albertorusso/Documents/rtl-assignment/app/src/main/AndroidManifest.xml:19:5-51
	android:versionCode
		INJECTED from /Users/albertorusso/Documents/rtl-assignment/app/src/main/AndroidManifest.xml
		ADDED from /Users/albertorusso/Documents/rtl-assignment/app/src/main/AndroidManifest.xml:18:1-42:12
		INJECTED from /Users/albertorusso/Documents/rtl-assignment/app/src/main/AndroidManifest.xml
	xmlns:android
		ADDED from /Users/albertorusso/Documents/rtl-assignment/app/src/main/AndroidManifest.xml:18:11-69
uses-permission#android.permission.INTERNET
ADDED from /Users/albertorusso/Documents/rtl-assignment/app/src/main/AndroidManifest.xml:22:5-67
	android:name
		ADDED from /Users/albertorusso/Documents/rtl-assignment/app/src/main/AndroidManifest.xml:22:22-64
application
ADDED from /Users/albertorusso/Documents/rtl-assignment/app/src/main/AndroidManifest.xml:24:5-40:19
MERGED from [com.google.android.material:material:1.0.0] /Users/albertorusso/.gradle/caches/transforms-2/files-2.1/a2aafc73767c3f841f8c9ad28c8ce0f9/AndroidManifest.xml:22:5-20
MERGED from [com.google.android.material:material:1.0.0] /Users/albertorusso/.gradle/caches/transforms-2/files-2.1/a2aafc73767c3f841f8c9ad28c8ce0f9/AndroidManifest.xml:22:5-20
MERGED from [androidx.constraintlayout:constraintlayout:1.1.3] /Users/albertorusso/.gradle/caches/transforms-2/files-2.1/e7e4c4661ee18179af3fbb690bb871bb/AndroidManifest.xml:9:5-20
MERGED from [androidx.constraintlayout:constraintlayout:1.1.3] /Users/albertorusso/.gradle/caches/transforms-2/files-2.1/e7e4c4661ee18179af3fbb690bb871bb/AndroidManifest.xml:9:5-20
MERGED from [androidx.lifecycle:lifecycle-extensions:2.2.0-alpha01] /Users/albertorusso/.gradle/caches/transforms-2/files-2.1/a20aa0043444fc0dfce31a67321e23f5/AndroidManifest.xml:22:5-23:19
MERGED from [androidx.lifecycle:lifecycle-extensions:2.2.0-alpha01] /Users/albertorusso/.gradle/caches/transforms-2/files-2.1/a20aa0043444fc0dfce31a67321e23f5/AndroidManifest.xml:22:5-23:19
MERGED from [com.jakewharton.timber:timber:4.7.1] /Users/albertorusso/.gradle/caches/transforms-2/files-2.1/67d90d7c4c4b5a87e7f80237654a3dac/AndroidManifest.xml:7:5-20
MERGED from [com.jakewharton.timber:timber:4.7.1] /Users/albertorusso/.gradle/caches/transforms-2/files-2.1/67d90d7c4c4b5a87e7f80237654a3dac/AndroidManifest.xml:7:5-20
MERGED from [com.github.bumptech.glide:glide:4.8.0] /Users/albertorusso/.gradle/caches/transforms-2/files-2.1/b0b6a439e78849afdec5da2d927bafb7/AndroidManifest.xml:10:5-20
MERGED from [com.github.bumptech.glide:glide:4.8.0] /Users/albertorusso/.gradle/caches/transforms-2/files-2.1/b0b6a439e78849afdec5da2d927bafb7/AndroidManifest.xml:10:5-20
MERGED from [androidx.room:room-runtime:2.1.0-alpha06] /Users/albertorusso/.gradle/caches/transforms-2/files-2.1/ca577de8aeb8d441981b5b83d2eae471/AndroidManifest.xml:22:5-26:19
MERGED from [androidx.room:room-runtime:2.1.0-alpha06] /Users/albertorusso/.gradle/caches/transforms-2/files-2.1/ca577de8aeb8d441981b5b83d2eae471/AndroidManifest.xml:22:5-26:19
MERGED from [androidx.core:core:1.0.2] /Users/albertorusso/.gradle/caches/transforms-2/files-2.1/7357e8ab3d8fa5ec29db00526e95f769/AndroidManifest.xml:22:5-89
MERGED from [androidx.core:core:1.0.2] /Users/albertorusso/.gradle/caches/transforms-2/files-2.1/7357e8ab3d8fa5ec29db00526e95f769/AndroidManifest.xml:22:5-89
MERGED from [androidx.lifecycle:lifecycle-process:2.2.0-alpha01] /Users/albertorusso/.gradle/caches/transforms-2/files-2.1/9eb31e8b01e81b4bbd8da66c0915c5b0/AndroidManifest.xml:22:5-28:19
MERGED from [androidx.lifecycle:lifecycle-process:2.2.0-alpha01] /Users/albertorusso/.gradle/caches/transforms-2/files-2.1/9eb31e8b01e81b4bbd8da66c0915c5b0/AndroidManifest.xml:22:5-28:19
MERGED from [androidx.versionedparcelable:versionedparcelable:1.0.0] /Users/albertorusso/.gradle/caches/transforms-2/files-2.1/82d080fe89a3e5cb78697d95fd33dc7e/AndroidManifest.xml:22:5-23:19
MERGED from [androidx.versionedparcelable:versionedparcelable:1.0.0] /Users/albertorusso/.gradle/caches/transforms-2/files-2.1/82d080fe89a3e5cb78697d95fd33dc7e/AndroidManifest.xml:22:5-23:19
MERGED from [com.github.bumptech.glide:gifdecoder:4.8.0] /Users/albertorusso/.gradle/caches/transforms-2/files-2.1/8538b6d5c9e36310b3787e1baae1b3c2/AndroidManifest.xml:9:5-20
MERGED from [com.github.bumptech.glide:gifdecoder:4.8.0] /Users/albertorusso/.gradle/caches/transforms-2/files-2.1/8538b6d5c9e36310b3787e1baae1b3c2/AndroidManifest.xml:9:5-20
	android:appComponentFactory
		ADDED from [androidx.core:core:1.0.2] /Users/albertorusso/.gradle/caches/transforms-2/files-2.1/7357e8ab3d8fa5ec29db00526e95f769/AndroidManifest.xml:22:18-86
	android:supportsRtl
		ADDED from /Users/albertorusso/Documents/rtl-assignment/app/src/main/AndroidManifest.xml:30:9-35
	android:label
		ADDED from /Users/albertorusso/Documents/rtl-assignment/app/src/main/AndroidManifest.xml:28:9-41
	tools:ignore
		ADDED from /Users/albertorusso/Documents/rtl-assignment/app/src/main/AndroidManifest.xml:32:9-48
	android:roundIcon
		ADDED from /Users/albertorusso/Documents/rtl-assignment/app/src/main/AndroidManifest.xml:29:9-54
	android:icon
		ADDED from /Users/albertorusso/Documents/rtl-assignment/app/src/main/AndroidManifest.xml:27:9-43
	android:allowBackup
		ADDED from /Users/albertorusso/Documents/rtl-assignment/app/src/main/AndroidManifest.xml:26:9-35
	android:theme
		ADDED from /Users/albertorusso/Documents/rtl-assignment/app/src/main/AndroidManifest.xml:31:9-40
	android:name
		ADDED from /Users/albertorusso/Documents/rtl-assignment/app/src/main/AndroidManifest.xml:25:9-63
activity#com.example.android.rtl.ui.MainActivity
ADDED from /Users/albertorusso/Documents/rtl-assignment/app/src/main/AndroidManifest.xml:33:9-39:20
	android:name
		ADDED from /Users/albertorusso/Documents/rtl-assignment/app/src/main/AndroidManifest.xml:33:19-73
intent-filter#action:name:android.intent.action.MAIN+category:name:android.intent.category.LAUNCHER
ADDED from /Users/albertorusso/Documents/rtl-assignment/app/src/main/AndroidManifest.xml:34:13-38:29
action#android.intent.action.MAIN
ADDED from /Users/albertorusso/Documents/rtl-assignment/app/src/main/AndroidManifest.xml:35:17-69
	android:name
		ADDED from /Users/albertorusso/Documents/rtl-assignment/app/src/main/AndroidManifest.xml:35:25-66
category#android.intent.category.LAUNCHER
ADDED from /Users/albertorusso/Documents/rtl-assignment/app/src/main/AndroidManifest.xml:37:17-77
	android:name
		ADDED from /Users/albertorusso/Documents/rtl-assignment/app/src/main/AndroidManifest.xml:37:27-74
uses-sdk
INJECTED from /Users/albertorusso/Documents/rtl-assignment/app/src/main/AndroidManifest.xml reason: use-sdk injection requested
INJECTED from /Users/albertorusso/Documents/rtl-assignment/app/src/main/AndroidManifest.xml
INJECTED from /Users/albertorusso/Documents/rtl-assignment/app/src/main/AndroidManifest.xml
MERGED from [androidx.databinding:databinding-adapters:3.4.0] /Users/albertorusso/.gradle/caches/transforms-2/files-2.1/c0077edfcc4500e9dd25c481ab4a0232/AndroidManifest.xml:22:5-44
MERGED from [androidx.databinding:databinding-adapters:3.4.0] /Users/albertorusso/.gradle/caches/transforms-2/files-2.1/c0077edfcc4500e9dd25c481ab4a0232/AndroidManifest.xml:22:5-44
MERGED from [androidx.databinding:databinding-runtime:3.4.0] /Users/albertorusso/.gradle/caches/transforms-2/files-2.1/b532645c71f51ba421f929671daa1851/AndroidManifest.xml:22:5-44
MERGED from [androidx.databinding:databinding-runtime:3.4.0] /Users/albertorusso/.gradle/caches/transforms-2/files-2.1/b532645c71f51ba421f929671daa1851/AndroidManifest.xml:22:5-44
MERGED from [android.arch.navigation:navigation-ui-ktx:1.0.0] /Users/albertorusso/.gradle/caches/transforms-2/files-2.1/4f3444f4bba8d3ef316429d50177b3f9/AndroidManifest.xml:20:5-44
MERGED from [android.arch.navigation:navigation-ui-ktx:1.0.0] /Users/albertorusso/.gradle/caches/transforms-2/files-2.1/4f3444f4bba8d3ef316429d50177b3f9/AndroidManifest.xml:20:5-44
MERGED from [android.arch.navigation:navigation-ui:1.0.0] /Users/albertorusso/.gradle/caches/transforms-2/files-2.1/5f95a8caec286889d3c9bd706ec1891a/AndroidManifest.xml:20:5-44
MERGED from [android.arch.navigation:navigation-ui:1.0.0] /Users/albertorusso/.gradle/caches/transforms-2/files-2.1/5f95a8caec286889d3c9bd706ec1891a/AndroidManifest.xml:20:5-44
MERGED from [com.google.android.material:material:1.0.0] /Users/albertorusso/.gradle/caches/transforms-2/files-2.1/a2aafc73767c3f841f8c9ad28c8ce0f9/AndroidManifest.xml:20:5-44
MERGED from [com.google.android.material:material:1.0.0] /Users/albertorusso/.gradle/caches/transforms-2/files-2.1/a2aafc73767c3f841f8c9ad28c8ce0f9/AndroidManifest.xml:20:5-44
MERGED from [androidx.appcompat:appcompat:1.0.2] /Users/albertorusso/.gradle/caches/transforms-2/files-2.1/e1bec6384090f101ff0a3e35c0f3f191/AndroidManifest.xml:20:5-44
MERGED from [androidx.appcompat:appcompat:1.0.2] /Users/albertorusso/.gradle/caches/transforms-2/files-2.1/e1bec6384090f101ff0a3e35c0f3f191/AndroidManifest.xml:20:5-44
MERGED from [androidx.legacy:legacy-support-v4:1.0.0] /Users/albertorusso/.gradle/caches/transforms-2/files-2.1/da10c4451210d1ffc2ec3e34691bce4c/AndroidManifest.xml:20:5-44
MERGED from [androidx.legacy:legacy-support-v4:1.0.0] /Users/albertorusso/.gradle/caches/transforms-2/files-2.1/da10c4451210d1ffc2ec3e34691bce4c/AndroidManifest.xml:20:5-44
MERGED from [androidx.core:core-ktx:1.0.2] /Users/albertorusso/.gradle/caches/transforms-2/files-2.1/920c87602b523a09bd91360bd28588d9/AndroidManifest.xml:5:5-44
MERGED from [androidx.core:core-ktx:1.0.2] /Users/albertorusso/.gradle/caches/transforms-2/files-2.1/920c87602b523a09bd91360bd28588d9/AndroidManifest.xml:5:5-44
MERGED from [androidx.constraintlayout:constraintlayout:1.1.3] /Users/albertorusso/.gradle/caches/transforms-2/files-2.1/e7e4c4661ee18179af3fbb690bb871bb/AndroidManifest.xml:5:5-7:41
MERGED from [androidx.constraintlayout:constraintlayout:1.1.3] /Users/albertorusso/.gradle/caches/transforms-2/files-2.1/e7e4c4661ee18179af3fbb690bb871bb/AndroidManifest.xml:5:5-7:41
MERGED from [android.arch.navigation:navigation-fragment-ktx:1.0.0] /Users/albertorusso/.gradle/caches/transforms-2/files-2.1/1cd5a2a6f7f6b49dd00bda2ddf9ddea5/AndroidManifest.xml:20:5-44
MERGED from [android.arch.navigation:navigation-fragment-ktx:1.0.0] /Users/albertorusso/.gradle/caches/transforms-2/files-2.1/1cd5a2a6f7f6b49dd00bda2ddf9ddea5/AndroidManifest.xml:20:5-44
MERGED from [androidx.lifecycle:lifecycle-extensions:2.2.0-alpha01] /Users/albertorusso/.gradle/caches/transforms-2/files-2.1/a20aa0043444fc0dfce31a67321e23f5/AndroidManifest.xml:20:5-44
MERGED from [androidx.lifecycle:lifecycle-extensions:2.2.0-alpha01] /Users/albertorusso/.gradle/caches/transforms-2/files-2.1/a20aa0043444fc0dfce31a67321e23f5/AndroidManifest.xml:20:5-44
MERGED from [com.jakewharton.timber:timber:4.7.1] /Users/albertorusso/.gradle/caches/transforms-2/files-2.1/67d90d7c4c4b5a87e7f80237654a3dac/AndroidManifest.xml:5:5-43
MERGED from [com.jakewharton.timber:timber:4.7.1] /Users/albertorusso/.gradle/caches/transforms-2/files-2.1/67d90d7c4c4b5a87e7f80237654a3dac/AndroidManifest.xml:5:5-43
MERGED from [com.github.bumptech.glide:glide:4.8.0] /Users/albertorusso/.gradle/caches/transforms-2/files-2.1/b0b6a439e78849afdec5da2d927bafb7/AndroidManifest.xml:6:5-8:41
MERGED from [com.github.bumptech.glide:glide:4.8.0] /Users/albertorusso/.gradle/caches/transforms-2/files-2.1/b0b6a439e78849afdec5da2d927bafb7/AndroidManifest.xml:6:5-8:41
MERGED from [androidx.room:room-runtime:2.1.0-alpha06] /Users/albertorusso/.gradle/caches/transforms-2/files-2.1/ca577de8aeb8d441981b5b83d2eae471/AndroidManifest.xml:20:5-44
MERGED from [androidx.room:room-runtime:2.1.0-alpha06] /Users/albertorusso/.gradle/caches/transforms-2/files-2.1/ca577de8aeb8d441981b5b83d2eae471/AndroidManifest.xml:20:5-44
MERGED from [android.arch.navigation:navigation-fragment:1.0.0] /Users/albertorusso/.gradle/caches/transforms-2/files-2.1/104356b2589c7435c30d2f1d8281ff21/AndroidManifest.xml:20:5-44
MERGED from [android.arch.navigation:navigation-fragment:1.0.0] /Users/albertorusso/.gradle/caches/transforms-2/files-2.1/104356b2589c7435c30d2f1d8281ff21/AndroidManifest.xml:20:5-44
MERGED from [androidx.fragment:fragment:1.0.0] /Users/albertorusso/.gradle/caches/transforms-2/files-2.1/28d7b5aca904b4ec2b55055ea37233d4/AndroidManifest.xml:20:5-44
MERGED from [androidx.fragment:fragment:1.0.0] /Users/albertorusso/.gradle/caches/transforms-2/files-2.1/28d7b5aca904b4ec2b55055ea37233d4/AndroidManifest.xml:20:5-44
MERGED from [androidx.vectordrawable:vectordrawable-animated:1.0.0] /Users/albertorusso/.gradle/caches/transforms-2/files-2.1/6f4a529746b0ef260f45466fcb6875a4/AndroidManifest.xml:20:5-44
MERGED from [androidx.vectordrawable:vectordrawable-animated:1.0.0] /Users/albertorusso/.gradle/caches/transforms-2/files-2.1/6f4a529746b0ef260f45466fcb6875a4/AndroidManifest.xml:20:5-44
MERGED from [androidx.recyclerview:recyclerview:1.0.0] /Users/albertorusso/.gradle/caches/transforms-2/files-2.1/b5e7d036a99d35beced368ad1a0adfce/AndroidManifest.xml:20:5-44
MERGED from [androidx.recyclerview:recyclerview:1.0.0] /Users/albertorusso/.gradle/caches/transforms-2/files-2.1/b5e7d036a99d35beced368ad1a0adfce/AndroidManifest.xml:20:5-44
MERGED from [androidx.legacy:legacy-support-core-ui:1.0.0] /Users/albertorusso/.gradle/caches/transforms-2/files-2.1/46490fb18a0285bbddd541413e59dcde/AndroidManifest.xml:20:5-44
MERGED from [androidx.legacy:legacy-support-core-ui:1.0.0] /Users/albertorusso/.gradle/caches/transforms-2/files-2.1/46490fb18a0285bbddd541413e59dcde/AndroidManifest.xml:20:5-44
MERGED from [android.arch.navigation:navigation-runtime-ktx:1.0.0] /Users/albertorusso/.gradle/caches/transforms-2/files-2.1/c14fb9543293caeed3766a41c51d23db/AndroidManifest.xml:20:5-44
MERGED from [android.arch.navigation:navigation-runtime-ktx:1.0.0] /Users/albertorusso/.gradle/caches/transforms-2/files-2.1/c14fb9543293caeed3766a41c51d23db/AndroidManifest.xml:20:5-44
MERGED from [android.arch.navigation:navigation-runtime:1.0.0] /Users/albertorusso/.gradle/caches/transforms-2/files-2.1/2c4d69b3bcd6f25c2c8cfb0540e7b6dd/AndroidManifest.xml:20:5-44
MERGED from [android.arch.navigation:navigation-runtime:1.0.0] /Users/albertorusso/.gradle/caches/transforms-2/files-2.1/2c4d69b3bcd6f25c2c8cfb0540e7b6dd/AndroidManifest.xml:20:5-44
MERGED from [androidx.legacy:legacy-support-core-utils:1.0.0] /Users/albertorusso/.gradle/caches/transforms-2/files-2.1/ac319da78e469daf546f0ca836c96b40/AndroidManifest.xml:20:5-44
MERGED from [androidx.legacy:legacy-support-core-utils:1.0.0] /Users/albertorusso/.gradle/caches/transforms-2/files-2.1/ac319da78e469daf546f0ca836c96b40/AndroidManifest.xml:20:5-44
MERGED from [androidx.vectordrawable:vectordrawable:1.0.1] /Users/albertorusso/.gradle/caches/transforms-2/files-2.1/daaeb3cff6030a1c91ce1aeb8be419c1/AndroidManifest.xml:20:5-44
MERGED from [androidx.vectordrawable:vectordrawable:1.0.1] /Users/albertorusso/.gradle/caches/transforms-2/files-2.1/daaeb3cff6030a1c91ce1aeb8be419c1/AndroidManifest.xml:20:5-44
MERGED from [androidx.media:media:1.0.0] /Users/albertorusso/.gradle/caches/transforms-2/files-2.1/5f18522568630c9aa6d860f7664699c0/AndroidManifest.xml:20:5-44
MERGED from [androidx.media:media:1.0.0] /Users/albertorusso/.gradle/caches/transforms-2/files-2.1/5f18522568630c9aa6d860f7664699c0/AndroidManifest.xml:20:5-44
MERGED from [androidx.transition:transition:1.0.0] /Users/albertorusso/.gradle/caches/transforms-2/files-2.1/591d481cbb48df802e6d583e9f63b770/AndroidManifest.xml:20:5-44
MERGED from [androidx.transition:transition:1.0.0] /Users/albertorusso/.gradle/caches/transforms-2/files-2.1/591d481cbb48df802e6d583e9f63b770/AndroidManifest.xml:20:5-44
MERGED from [androidx.loader:loader:1.0.0] /Users/albertorusso/.gradle/caches/transforms-2/files-2.1/bbbcacb731910f506c69ad48af0588aa/AndroidManifest.xml:20:5-44
MERGED from [androidx.loader:loader:1.0.0] /Users/albertorusso/.gradle/caches/transforms-2/files-2.1/bbbcacb731910f506c69ad48af0588aa/AndroidManifest.xml:20:5-44
MERGED from [androidx.viewpager:viewpager:1.0.0] /Users/albertorusso/.gradle/caches/transforms-2/files-2.1/2aa0cffc78f48c2569965fc8d49c6094/AndroidManifest.xml:20:5-44
MERGED from [androidx.viewpager:viewpager:1.0.0] /Users/albertorusso/.gradle/caches/transforms-2/files-2.1/2aa0cffc78f48c2569965fc8d49c6094/AndroidManifest.xml:20:5-44
MERGED from [androidx.coordinatorlayout:coordinatorlayout:1.0.0] /Users/albertorusso/.gradle/caches/transforms-2/files-2.1/ad964037248811225b2b9a64c4960e9b/AndroidManifest.xml:20:5-44
MERGED from [androidx.coordinatorlayout:coordinatorlayout:1.0.0] /Users/albertorusso/.gradle/caches/transforms-2/files-2.1/ad964037248811225b2b9a64c4960e9b/AndroidManifest.xml:20:5-44
MERGED from [androidx.drawerlayout:drawerlayout:1.0.0] /Users/albertorusso/.gradle/caches/transforms-2/files-2.1/81b0ae0e3ded745529cdd796fd994093/AndroidManifest.xml:20:5-44
MERGED from [androidx.drawerlayout:drawerlayout:1.0.0] /Users/albertorusso/.gradle/caches/transforms-2/files-2.1/81b0ae0e3ded745529cdd796fd994093/AndroidManifest.xml:20:5-44
MERGED from [androidx.slidingpanelayout:slidingpanelayout:1.0.0] /Users/albertorusso/.gradle/caches/transforms-2/files-2.1/08cf24779c9ee7b7d68e08fbd918dbfc/AndroidManifest.xml:20:5-44
MERGED from [androidx.slidingpanelayout:slidingpanelayout:1.0.0] /Users/albertorusso/.gradle/caches/transforms-2/files-2.1/08cf24779c9ee7b7d68e08fbd918dbfc/AndroidManifest.xml:20:5-44
MERGED from [androidx.customview:customview:1.0.0] /Users/albertorusso/.gradle/caches/transforms-2/files-2.1/8eb97732585bf55306428930980f5a6b/AndroidManifest.xml:20:5-44
MERGED from [androidx.customview:customview:1.0.0] /Users/albertorusso/.gradle/caches/transforms-2/files-2.1/8eb97732585bf55306428930980f5a6b/AndroidManifest.xml:20:5-44
MERGED from [androidx.swiperefreshlayout:swiperefreshlayout:1.0.0] /Users/albertorusso/.gradle/caches/transforms-2/files-2.1/99caf28a6417beb9f548b0647459a6dc/AndroidManifest.xml:20:5-44
MERGED from [androidx.swiperefreshlayout:swiperefreshlayout:1.0.0] /Users/albertorusso/.gradle/caches/transforms-2/files-2.1/99caf28a6417beb9f548b0647459a6dc/AndroidManifest.xml:20:5-44
MERGED from [androidx.asynclayoutinflater:asynclayoutinflater:1.0.0] /Users/albertorusso/.gradle/caches/transforms-2/files-2.1/7a238cbc983ad6e90ea028206f73461b/AndroidManifest.xml:20:5-44
MERGED from [androidx.asynclayoutinflater:asynclayoutinflater:1.0.0] /Users/albertorusso/.gradle/caches/transforms-2/files-2.1/7a238cbc983ad6e90ea028206f73461b/AndroidManifest.xml:20:5-44
MERGED from [android.arch.navigation:navigation-common-ktx:1.0.0] /Users/albertorusso/.gradle/caches/transforms-2/files-2.1/6cc94e166a82877e99a2084c5ea37e90/AndroidManifest.xml:20:5-44
MERGED from [android.arch.navigation:navigation-common-ktx:1.0.0] /Users/albertorusso/.gradle/caches/transforms-2/files-2.1/6cc94e166a82877e99a2084c5ea37e90/AndroidManifest.xml:20:5-44
MERGED from [android.arch.navigation:navigation-common:1.0.0] /Users/albertorusso/.gradle/caches/transforms-2/files-2.1/087513137d20d15d7d1a27b960b13f21/AndroidManifest.xml:20:5-44
MERGED from [android.arch.navigation:navigation-common:1.0.0] /Users/albertorusso/.gradle/caches/transforms-2/files-2.1/087513137d20d15d7d1a27b960b13f21/AndroidManifest.xml:20:5-44
MERGED from [androidx.core:core:1.0.2] /Users/albertorusso/.gradle/caches/transforms-2/files-2.1/7357e8ab3d8fa5ec29db00526e95f769/AndroidManifest.xml:20:5-44
MERGED from [androidx.core:core:1.0.2] /Users/albertorusso/.gradle/caches/transforms-2/files-2.1/7357e8ab3d8fa5ec29db00526e95f769/AndroidManifest.xml:20:5-44
MERGED from [androidx.lifecycle:lifecycle-process:2.2.0-alpha01] /Users/albertorusso/.gradle/caches/transforms-2/files-2.1/9eb31e8b01e81b4bbd8da66c0915c5b0/AndroidManifest.xml:20:5-44
MERGED from [androidx.lifecycle:lifecycle-process:2.2.0-alpha01] /Users/albertorusso/.gradle/caches/transforms-2/files-2.1/9eb31e8b01e81b4bbd8da66c0915c5b0/AndroidManifest.xml:20:5-44
MERGED from [androidx.lifecycle:lifecycle-service:2.2.0-alpha01] /Users/albertorusso/.gradle/caches/transforms-2/files-2.1/0a235357dc57d8c84009ee59d6091cb1/AndroidManifest.xml:20:5-44
MERGED from [androidx.lifecycle:lifecycle-service:2.2.0-alpha01] /Users/albertorusso/.gradle/caches/transforms-2/files-2.1/0a235357dc57d8c84009ee59d6091cb1/AndroidManifest.xml:20:5-44
MERGED from [androidx.lifecycle:lifecycle-runtime:2.2.0-alpha01] /Users/albertorusso/.gradle/caches/transforms-2/files-2.1/8e1c308f1d09e8f5af57f77749866d55/AndroidManifest.xml:20:5-44
MERGED from [androidx.lifecycle:lifecycle-runtime:2.2.0-alpha01] /Users/albertorusso/.gradle/caches/transforms-2/files-2.1/8e1c308f1d09e8f5af57f77749866d55/AndroidManifest.xml:20:5-44
MERGED from [androidx.versionedparcelable:versionedparcelable:1.0.0] /Users/albertorusso/.gradle/caches/transforms-2/files-2.1/82d080fe89a3e5cb78697d95fd33dc7e/AndroidManifest.xml:20:5-44
MERGED from [androidx.versionedparcelable:versionedparcelable:1.0.0] /Users/albertorusso/.gradle/caches/transforms-2/files-2.1/82d080fe89a3e5cb78697d95fd33dc7e/AndroidManifest.xml:20:5-44
MERGED from [androidx.cursoradapter:cursoradapter:1.0.0] /Users/albertorusso/.gradle/caches/transforms-2/files-2.1/990f7484a5fff02dab68aefd6919eaf1/AndroidManifest.xml:20:5-44
MERGED from [androidx.cursoradapter:cursoradapter:1.0.0] /Users/albertorusso/.gradle/caches/transforms-2/files-2.1/990f7484a5fff02dab68aefd6919eaf1/AndroidManifest.xml:20:5-44
MERGED from [androidx.cardview:cardview:1.0.0] /Users/albertorusso/.gradle/caches/transforms-2/files-2.1/0d3c781c59c18f326b73821ce219ca3b/AndroidManifest.xml:20:5-44
MERGED from [androidx.cardview:cardview:1.0.0] /Users/albertorusso/.gradle/caches/transforms-2/files-2.1/0d3c781c59c18f326b73821ce219ca3b/AndroidManifest.xml:20:5-44
MERGED from [androidx.lifecycle:lifecycle-livedata:2.2.0-alpha01] /Users/albertorusso/.gradle/caches/transforms-2/files-2.1/08eef8c7960978b28565b256b7ce0f08/AndroidManifest.xml:20:5-44
MERGED from [androidx.lifecycle:lifecycle-livedata:2.2.0-alpha01] /Users/albertorusso/.gradle/caches/transforms-2/files-2.1/08eef8c7960978b28565b256b7ce0f08/AndroidManifest.xml:20:5-44
MERGED from [androidx.lifecycle:lifecycle-livedata-core:2.2.0-alpha01] /Users/albertorusso/.gradle/caches/transforms-2/files-2.1/0c8f4c515d2cfb0e6d3c8af6ff90af62/AndroidManifest.xml:20:5-44
MERGED from [androidx.lifecycle:lifecycle-livedata-core:2.2.0-alpha01] /Users/albertorusso/.gradle/caches/transforms-2/files-2.1/0c8f4c515d2cfb0e6d3c8af6ff90af62/AndroidManifest.xml:20:5-44
MERGED from [androidx.arch.core:core-runtime:2.1.0-beta01] /Users/albertorusso/.gradle/caches/transforms-2/files-2.1/3df923c89633e55e50bb30f29ee3d93f/AndroidManifest.xml:20:5-44
MERGED from [androidx.arch.core:core-runtime:2.1.0-beta01] /Users/albertorusso/.gradle/caches/transforms-2/files-2.1/3df923c89633e55e50bb30f29ee3d93f/AndroidManifest.xml:20:5-44
MERGED from [androidx.lifecycle:lifecycle-viewmodel:2.2.0-alpha01] /Users/albertorusso/.gradle/caches/transforms-2/files-2.1/fd2e7be2131f8f993f7d6cd56e05748d/AndroidManifest.xml:20:5-44
MERGED from [androidx.lifecycle:lifecycle-viewmodel:2.2.0-alpha01] /Users/albertorusso/.gradle/caches/transforms-2/files-2.1/fd2e7be2131f8f993f7d6cd56e05748d/AndroidManifest.xml:20:5-44
MERGED from [com.github.bumptech.glide:gifdecoder:4.8.0] /Users/albertorusso/.gradle/caches/transforms-2/files-2.1/8538b6d5c9e36310b3787e1baae1b3c2/AndroidManifest.xml:5:5-7:41
MERGED from [com.github.bumptech.glide:gifdecoder:4.8.0] /Users/albertorusso/.gradle/caches/transforms-2/files-2.1/8538b6d5c9e36310b3787e1baae1b3c2/AndroidManifest.xml:5:5-7:41
MERGED from [androidx.sqlite:sqlite-framework:2.0.1] /Users/albertorusso/.gradle/caches/transforms-2/files-2.1/8248a3757d9ebca1d83c3e4ad6c8219f/AndroidManifest.xml:20:5-44
MERGED from [androidx.sqlite:sqlite-framework:2.0.1] /Users/albertorusso/.gradle/caches/transforms-2/files-2.1/8248a3757d9ebca1d83c3e4ad6c8219f/AndroidManifest.xml:20:5-44
MERGED from [androidx.sqlite:sqlite:2.0.1] /Users/albertorusso/.gradle/caches/transforms-2/files-2.1/b0ecc9c21b67eb61da01e2df3d243d10/AndroidManifest.xml:20:5-44
MERGED from [androidx.sqlite:sqlite:2.0.1] /Users/albertorusso/.gradle/caches/transforms-2/files-2.1/b0ecc9c21b67eb61da01e2df3d243d10/AndroidManifest.xml:20:5-44
MERGED from [androidx.documentfile:documentfile:1.0.0] /Users/albertorusso/.gradle/caches/transforms-2/files-2.1/55421b2dcb9b34ffbb3e6f4f9fcdc7af/AndroidManifest.xml:20:5-44
MERGED from [androidx.documentfile:documentfile:1.0.0] /Users/albertorusso/.gradle/caches/transforms-2/files-2.1/55421b2dcb9b34ffbb3e6f4f9fcdc7af/AndroidManifest.xml:20:5-44
MERGED from [androidx.localbroadcastmanager:localbroadcastmanager:1.0.0] /Users/albertorusso/.gradle/caches/transforms-2/files-2.1/39972dc8f20e95feff4526ce8e226609/AndroidManifest.xml:20:5-44
MERGED from [androidx.localbroadcastmanager:localbroadcastmanager:1.0.0] /Users/albertorusso/.gradle/caches/transforms-2/files-2.1/39972dc8f20e95feff4526ce8e226609/AndroidManifest.xml:20:5-44
MERGED from [androidx.print:print:1.0.0] /Users/albertorusso/.gradle/caches/transforms-2/files-2.1/de282367bbb01396923b23df1e1fc72a/AndroidManifest.xml:20:5-44
MERGED from [androidx.print:print:1.0.0] /Users/albertorusso/.gradle/caches/transforms-2/files-2.1/de282367bbb01396923b23df1e1fc72a/AndroidManifest.xml:20:5-44
MERGED from [androidx.interpolator:interpolator:1.0.0] /Users/albertorusso/.gradle/caches/transforms-2/files-2.1/e631b91fc2941b4c985dca685d18605d/AndroidManifest.xml:20:5-44
MERGED from [androidx.interpolator:interpolator:1.0.0] /Users/albertorusso/.gradle/caches/transforms-2/files-2.1/e631b91fc2941b4c985dca685d18605d/AndroidManifest.xml:20:5-44
INJECTED from /Users/albertorusso/Documents/rtl-assignment/app/src/main/AndroidManifest.xml
INJECTED from /Users/albertorusso/Documents/rtl-assignment/app/src/main/AndroidManifest.xml
	android:targetSdkVersion
		INJECTED from /Users/albertorusso/Documents/rtl-assignment/app/src/main/AndroidManifest.xml
		ADDED from /Users/albertorusso/Documents/rtl-assignment/app/src/main/AndroidManifest.xml
		INJECTED from /Users/albertorusso/Documents/rtl-assignment/app/src/main/AndroidManifest.xml
	android:minSdkVersion
		INJECTED from /Users/albertorusso/Documents/rtl-assignment/app/src/main/AndroidManifest.xml
		ADDED from /Users/albertorusso/Documents/rtl-assignment/app/src/main/AndroidManifest.xml
		INJECTED from /Users/albertorusso/Documents/rtl-assignment/app/src/main/AndroidManifest.xml
service#androidx.room.MultiInstanceInvalidationService
ADDED from [androidx.room:room-runtime:2.1.0-alpha06] /Users/albertorusso/.gradle/caches/transforms-2/files-2.1/ca577de8aeb8d441981b5b83d2eae471/AndroidManifest.xml:23:9-25:40
	android:exported
		ADDED from [androidx.room:room-runtime:2.1.0-alpha06] /Users/albertorusso/.gradle/caches/transforms-2/files-2.1/ca577de8aeb8d441981b5b83d2eae471/AndroidManifest.xml:25:13-37
	android:name
		ADDED from [androidx.room:room-runtime:2.1.0-alpha06] /Users/albertorusso/.gradle/caches/transforms-2/files-2.1/ca577de8aeb8d441981b5b83d2eae471/AndroidManifest.xml:24:13-74
provider#androidx.lifecycle.ProcessLifecycleOwnerInitializer
ADDED from [androidx.lifecycle:lifecycle-process:2.2.0-alpha01] /Users/albertorusso/.gradle/caches/transforms-2/files-2.1/9eb31e8b01e81b4bbd8da66c0915c5b0/AndroidManifest.xml:23:9-27:43
	android:authorities
		ADDED from [androidx.lifecycle:lifecycle-process:2.2.0-alpha01] /Users/albertorusso/.gradle/caches/transforms-2/files-2.1/9eb31e8b01e81b4bbd8da66c0915c5b0/AndroidManifest.xml:25:13-69
	android:multiprocess
		ADDED from [androidx.lifecycle:lifecycle-process:2.2.0-alpha01] /Users/albertorusso/.gradle/caches/transforms-2/files-2.1/9eb31e8b01e81b4bbd8da66c0915c5b0/AndroidManifest.xml:27:13-40
	android:exported
		ADDED from [androidx.lifecycle:lifecycle-process:2.2.0-alpha01] /Users/albertorusso/.gradle/caches/transforms-2/files-2.1/9eb31e8b01e81b4bbd8da66c0915c5b0/AndroidManifest.xml:26:13-37
	android:name
		ADDED from [androidx.lifecycle:lifecycle-process:2.2.0-alpha01] /Users/albertorusso/.gradle/caches/transforms-2/files-2.1/9eb31e8b01e81b4bbd8da66c0915c5b0/AndroidManifest.xml:24:13-79
